{
  "API": {
    "HTTPHeaders": null
  },
  "Addresses": {
    "API": "{{ ipfs_http_api_listen_multiaddress }}",
    "Gateway": "{{ ipfs_http_gateway_listen_multiaddress }}",
    "Swarm": [
      "/ip4/0.0.0.0/tcp/4001",
      "/ip6/::/tcp/4001"
    ]
  },
  "Bootstrap": [
    "/dnsaddr/bootstrap.libp2p.io/p2p/QmNnooDu7bfjPFoTZYxMNLWUQJyrVwtbZg5gBMjTezGAJN",
    "/dnsaddr/bootstrap.libp2p.io/p2p/QmQCU2EcMqAqQPR2i9bChDtGNJchTbq5TbXJJ16u19uLTa",
    "/dnsaddr/bootstrap.libp2p.io/p2p/QmbLHAnMoJPWSCR5Zhtx6BHJX9KiKNN6tpvbUcqanj75Nb",
    "/dnsaddr/bootstrap.libp2p.io/p2p/QmcZf59bWwK5XFi76CZX8cbJ4BhTzzA3gU1ZjYZcYW3dwt",
    "/ip4/104.131.131.82/tcp/4001/p2p/QmaCpDMGvV2BGHeYERUEnRQAwe3N8SzbUtfsmvsqQLuvuJ",
    "/ip4/104.131.131.82/udp/4001/quic/p2p/QmaCpDMGvV2BGHeYERUEnRQAwe3N8SzbUtfsmvsqQLuvuJ",
    "/dns6/unifiedpush.org/tcp/4001/p2p/12D3KooWQP2mXMcTRPUqgNdubydN6ucAghYHDCRni8XZosNjTx3q"
  ],
  "Datastore": {
    "BloomFilterSize": 0,
    "GCPeriod": "1h",
    "HashOnRead": false,
    "Spec": {
      "mounts": [
        {
          "child": {
            "path": "blocks",
            "shardFunc": "/repo/flatfs/shard/v1/next-to-last/2",
            "sync": true,
            "type": "flatfs"
          },
          "mountpoint": "/blocks",
          "prefix": "flatfs.datastore",
          "type": "measure"
        },
        {
          "child": {
            "compression": "none",
            "path": "datastore",
            "type": "levelds"
          },
          "mountpoint": "/",
          "prefix": "leveldb.datastore",
          "type": "measure"
        }
      ],
      "type": "mount"
    },
    "StorageGCWatermark": 90,
    "StorageMax": "{{ ipfs_storage_max }}"
  },
  "Discovery": {
    "MDNS": {
      "Enabled": true,
      "Interval": 10
    }
  },
  "Experimental": {
    "FilestoreEnabled": false,
    "Libp2pStreamMounting": false,
    "ShardingEnabled": false
  },
  "Gateway": {
    "HTTPHeaders": {
      "Access-Control-Allow-Headers": [
        "X-Requested-With",
        "Range"
      ],
      "Access-Control-Allow-Methods": [
        "GET"
      ],
      "Access-Control-Allow-Origin": [
        "*"
      ]
    },
    "PathPrefixes": [],
    "RootRedirect": "",
    "Writable": false
  },
  "Identity": {
    "PeerID": "{{ ipfs_peer_id }}",
    "PrivKey": "{{ ipfs_private_key }}"
  },
  "Ipns": {
    "RecordLifetime": "",
    "RepublishPeriod": "",
    "ResolveCacheSize": 128
  },
  "Mounts": {
    "FuseAllowOther": true,
    "IPFS": "/ipfs",
    "IPNS": "/ipns"
  },
  "Reprovider": {
    "Interval": "12h"
  },
  "SupernodeRouting": {
    "Servers": null
  },
  "Swarm": {
    "AddrFilters": null,
    "DisableBandwidthMetrics": false,
    "DisableNatPortMap": false
  },
  "Tour": {
    "Last": ""
  }
}
